%YAML 1.1
%TAG !u! tag:unity3d.com,2011:
--- !u!1045 &1
EditorBuildSettings:
  m_ObjectHideFlags: 0
  serializedVersion: 2
  m_Scenes:
  - enabled: 1
    path: Assets/Scenes/GameLauncherScene.unity
    guid: fd6d0407e4e69984eaacdc74c0743509
  - enabled: 1
    path: Assets/Scenes/GameScene.unity
    guid: 535d61ddccfbeef4bbca856f1f12251a
  m_configObjects: {}
