%YAML 1.1
%TAG !u! tag:unity3d.com,2011:
--- !u!1045 &1
EditorBuildSettings:
  m_ObjectHideFlags: 0
  serializedVersion: 2
  m_Scenes:
  - enabled: 1
    path: Assets/Scenes/LobbyScene.unity
    guid: 406274ce148864e42a77567e30ef70d9
  - enabled: 1
    path: Assets/Scenes/GameScene.unity
    guid: bbcc394d7fb2b5f478d54d0f800a9665
  m_configObjects: {}
