%YAML 1.1
%TAG !u! tag:unity3d.com,2011:
--- !u!1045 &1
EditorBuildSettings:
  m_ObjectHideFlags: 0
  serializedVersion: 2
  m_Scenes:
  - enabled: 1
    path: Assets/Scenes/LobbyScene.unity
    guid: 3adb158719a2fde47b23f83f67d010c9
  - enabled: 1
    path: Assets/Scenes/NormalMode.unity
    guid: 33451dc2246d49b4f817308b6d02b5d5
  - enabled: 1
    path: Assets/Scenes/HyperMode.unity
    guid: 2cda990e2423bbf4892e6590ba056729
  m_configObjects: {}
